{
  "levels": [
    { "id": 101, "pos": [ -3.0, -0.2, 2.0 ] },
    { "id": 102, "pos": [ 2.0, -0.2, 1.5 ] },
    { "id": 103, "pos": [ 1.8, -0.2, -1.0 ] }
  ],
  "connections": [
    { "src_id": 101, "dst_id": 102, "src_side" : "right", "dst_side": "left" },
    { "src_id": 102, "dst_id": 103, "src_side": "down", "dst_side": "up" },
    { "src_id": 103, "dst_id": 101, "src_side": "left", "dst_side": "down" }
  ]
}
